Name,WeightClassKg,Division,Sex,Age,Best3SquatKg,Best3BenchKg,Best3DeadliftKg,TotalKg,Event,Equipment,Place
H. Steveson,60,Open,M,,205,120,215,540,SBD,Single-ply,1
Albert Pringle,67.5,Open,M,,250,145,242.5,637.5,SBD,Single-ply,1
A. Alvarez,67.5,Open,M,,202.5,125,235,562.5,SBD,Single-ply,2
T. Anderson,67.5,Open,M,,,125,205,,SBD,Single-ply,DQ
John Tyree,75,Open,M,,262.5,167.5,282.5,712.5,SBD,Single-ply,1
Troy Culberson,75,Open,M,,235,137.5,272.5,645,SBD,Single-ply,2
Donald Madere,75,Open,M,,220,157.5,205,582.5,SBD,Single-ply,3
L. Castillo,75,Open,M,,222.5,132.5,222.5,577.5,SBD,Single-ply,4
D. Williams,75,Open,M,,212.5,132.5,225,570,SBD,Single-ply,5
Rick Brown,75,Open,M,,202.5,110,245,557.5,SBD,Single-ply,6
Frank Restivo,75,Open,M,,187.5,147.5,215,550,SBD,Single-ply,7
Tee Meyers,82.5,Open,M,,280,152.5,292.5,725,SBD,Single-ply,1
Bruce Jasperson,82.5,Open,M,,285,167.5,260,712.5,SBD,Single-ply,2
Phil Gomez,82.5,Open,M,,250,177.5,257.5,685,SBD,Single-ply,3
Jonathan Wiseman,82.5,Open,M,,255,145,255,655,SBD,Single-ply,4
J. Yarbrough,82.5,Open,M,,245,127.5,237.5,610,SBD,Single-ply,5
James Toy,82.5,Open,M,,217.5,132.5,215,565,SBD,Single-ply,6
Quincy Guzman,82.5,Open,M,,,147.5,227.5,,SBD,Single-ply,DQ
K. Johnson,90,Open,M,,315,180,322.5,817.5,SBD,Single-ply,1
Hub Aston,90,Open,M,,332.5,222.5,255,810,SBD,Single-ply,2
G. Robertson,90,Open,M,,292.5,175,320,787.5,SBD,Single-ply,3
R. Rickert,90,Open,M,,282.5,192.5,287.5,762.5,SBD,Single-ply,4
T. Leuba,90,Open,M,,272.5,210,265,747.5,SBD,Single-ply,5
K. Stroud,90,Open,M,,277.5,190,267.5,735,SBD,Single-ply,6
J. Blanton,90,Open,M,,250,165,262.5,677.5,SBD,Single-ply,7
C. Sandau,90,Open,M,,255,150,235,640,SBD,Single-ply,8
G. Ruff,90,Open,M,,,125,225,,SBD,Single-ply,DQ
Chris Garcia,100,Open,M,,327.5,185,292.5,805,SBD,Single-ply,1
T. Allen,100,Open,M,,295,195,272.5,762.5,SBD,Single-ply,2
Steve Goggins,100,Open,M,,,227.5,365,,SBD,Single-ply,DQ
Robert Windsor,110,Open,M,,365,250,330,945,SBD,Single-ply,1
David Reece,110,Open,M,,325,230,267.5,822.5,SBD,Single-ply,2
Greg Raider,110,Open,M,,287.5,227.5,287.5,802.5,SBD,Single-ply,3
L. Hernandez,110,Open,M,,295,207.5,272.5,775,SBD,Single-ply,4
J. Ruthhardt,110,Open,M,,272.5,182.5,272.5,727.5,SBD,Single-ply,5
T. Ross,110,Open,M,,287.5,172.5,245,705,SBD,Single-ply,6
R. Bueche,110,Open,M,,255,177.5,237.5,670,SBD,Single-ply,7
Dwight Adkins,110,Open,M,,237.5,155,265,657.5,SBD,Single-ply,8
Jay Manda,110,Open,M,,65,65,310,440,SBD,Single-ply,9
Gil Thompson,125,Open,M,,352.5,255,300,907.5,SBD,Single-ply,1
W. Tolvus,125,Open,M,,292.5,235,272.5,800,SBD,Single-ply,2
I. Bright,125,Open,M,,272.5,182.5,250,705,SBD,Single-ply,3
K. Lane,52,Teen,M,,112.5,65,135,312.5,SBD,Single-ply,1
C. Marciniak,52,Teen,M,,102.5,,82.5,,SBD,Single-ply,DQ
R. Torres,56,Teen,M,,145,75,137.5,357.5,SBD,Single-ply,1
T. Swan,60,Teen,M,,172.5,100,182.5,455,SBD,Single-ply,1
S. Faustino,60,Teen,M,,155,87.5,190,432.5,SBD,Single-ply,2
J. Ramos,60,Teen,M,,160,87.5,160,407.5,SBD,Single-ply,3
I. Jimenez,60,Teen,M,,130,82.5,170,382.5,SBD,Single-ply,4
N. Simmons,60,Teen,M,,137.5,75,142.5,355,SBD,Single-ply,5
B. Johnson,67.5,Teen,M,,205,112.5,215,532.5,SBD,Single-ply,1
A. Torres,67.5,Teen,M,,190,90,197.5,477.5,SBD,Single-ply,2
B. Bowers,67.5,Teen,M,,170,130,170,470,SBD,Single-ply,3
B. Johnson,67.5,Teen,M,,170,95,170,435,SBD,Single-ply,4
T. Strevey,67.5,Teen,M,,142.5,97.5,165,405,SBD,Single-ply,5
L. Morris,67.5,Teen,M,,137.5,92.5,132.5,362.5,SBD,Single-ply,6
T. Garner,75,Teen,M,,200,122.5,187.5,510,SBD,Single-ply,1
B. Balsand,75,Teen,M,,172.5,125,200,497.5,SBD,Single-ply,2
S. Lindsey,75,Teen,M,,172.5,112.5,180,465,SBD,Single-ply,3
I. Lenzy,75,Teen,M,,172.5,77.5,212.5,462.5,SBD,Single-ply,4
D. Homniok,75,Teen,M,,165,117.5,150,432.5,SBD,Single-ply,5
M. Yakubousky,75,Teen,M,,165,95,170,430,SBD,Single-ply,6
P. Casper,75,Teen,M,,127.5,97.5,170,395,SBD,Single-ply,7
A. Kizer,75,Teen,M,,137.5,70,182.5,390,SBD,Single-ply,8
M. Bounds,82.5,Teen,M,,182.5,175,212.5,570,SBD,Single-ply,1
O. Ochoa,82.5,Teen,M,,147.5,127.5,185,460,SBD,Single-ply,2
L. Clark,90,Teen,M,,257.5,172.5,250,680,SBD,Single-ply,1
Rockie Ray,90,Teen,M,,242.5,160,202.5,605,SBD,Single-ply,2
J. Poulsen,90,Teen,M,,202.5,145,192.5,540,SBD,Single-ply,3
T. An #1,100,Teen,M,,220,150,205,575,SBD,Single-ply,1
J. Yokabaitis,100,Teen,M,,207.5,122.5,240,570,SBD,Single-ply,2
B. Griffin,100,Teen,M,,217.5,,220,,SBD,Single-ply,DQ
Deryl Mallard,110,Teen,M,,285,210,257.5,752.5,SBD,Single-ply,1
Ronnie Ray Jr,110,Teen,M,,287.5,200,235,722.5,SBD,Single-ply,2
A. Tenorio,110,Teen,M,,202.5,112.5,192.5,507.5,SBD,Single-ply,3
J. Moore,125,Teen,M,,235,145,227.5,607.5,SBD,Single-ply,1
C. Moss,125+,Teen,M,,142.5,95,182.5,420,SBD,Single-ply,1
A. Chance,125+,Teen,M,,,150,185,,SBD,Single-ply,DQ
D. Williams,48,Open,F,,97.5,37.5,120,255,SBD,Single-ply,1
S. Alfred,52,Open,F,,107.5,60,130,297.5,SBD,Single-ply,1
B. Clark,52,Open,F,,72.5,50,120,242.5,SBD,Single-ply,2
A. Williams,56,Open,F,,80,,102.5,,SBD,Single-ply,DQ
Andrea Raider,60,Open,F,,150,110,165,425,SBD,Single-ply,1
T. Tumbling,60,Open,F,,122.5,65,150,337.5,SBD,Single-ply,2
Beth Stringham,67.5,Open,F,,150,67.5,142.5,360,SBD,Single-ply,1
D. Gilmore,75,Open,F,,142.5,77.5,152.5,372.5,SBD,Single-ply,1
Z. Zirker,75,Open,F,,140,62.5,155,357.5,SBD,Single-ply,2
D. LeBlanc,75,Open,F,,102.5,50,130,282.5,SBD,Single-ply,3
L. Annis,75,Open,F,,85,40,85,210,SBD,Single-ply,4
P. Walls,90,Open,F,,170,107.5,157.5,435,SBD,Single-ply,1
E. Douglass,90,Open,F,,145,97.5,137.5,380,SBD,Single-ply,2
Kay S. Jewell,90+,Open,F,,205,82.5,172.5,460,SBD,Single-ply,1
E. Godfrey #2,67.5,Masters,M,47,245,165,245,655,SBD,Single-ply,1
Kenneth Crouse,67.5,Masters,M,41,140,107.5,175,422.5,SBD,Single-ply,2
J. Christian,75,Masters,M,43,190,127.5,245,562.5,SBD,Single-ply,1
Jim Yakubovsky,75,Masters,M,42,205,87.5,210,502.5,SBD,Single-ply,2
D. Krone,75,Masters,M,52,157.5,70,155,382.5,SBD,Single-ply,3
Bill Johnson,82.5,Masters,M,42,297.5,150,272.5,720,SBD,Single-ply,1
J. Rocha,82.5,Masters,M,40,200,155,210,565,SBD,Single-ply,2
P. Boyles,82.5,Masters,M,61,180,85,195,460,SBD,Single-ply,3
R. Jewell,82.5,Masters,M,44,152.5,130,175,457.5,SBD,Single-ply,4
J. Hurst,90,Masters,M,47,237.5,175,255,667.5,SBD,Single-ply,1
B. Corbin,90,Masters,M,49,182.5,,200,,SBD,Single-ply,DQ
S. Helton,90,Masters,M,55,60,182.5,,,SBD,Single-ply,DQ
J. Hamiter,90,Masters,M,,190,,195,,SBD,Single-ply,DQ
J. Huckabay,100,Masters,M,47,197.5,145,202.5,545,SBD,Single-ply,1
J. Patin,100,Masters,M,42,167.5,142.5,182.5,492.5,SBD,Single-ply,2
L. Gipson,100,Masters,M,,192.5,67.5,192.5,452.5,SBD,Single-ply,3
Ronnie Ray Sr,110,Masters,M,46,282.5,235,275,792.5,SBD,Single-ply,1
Bill Jackson,110,Masters,M,48,272.5,185,272.5,730,SBD,Single-ply,2
E. Smith,110,Masters,M,40,282.5,165,265,712.5,SBD,Single-ply,3
J. Egrie,110,Masters,M,47,235,147.5,260,642.5,SBD,Single-ply,4
L. Green,110,Masters,M,,212.5,150,210,572.5,SBD,Single-ply,5
L. Powers,125,Masters,M,41,257.5,175,227.5,660,SBD,Single-ply,1
J. Coffman,125,Masters,M,42,200,150,187.5,537.5,SBD,Single-ply,2
S. Faustino,60,Class II,M,,155,87.5,190,432.5,SBD,Single-ply,1
I. Sewake,67.5,Class II,M,,160,100,200,460,SBD,Single-ply,1
B. Riley,67.5,Class II,M,,140,100,190,430,SBD,Single-ply,2
C. Nastally,75,Class II,M,,210,135,230,575,SBD,Single-ply,1
A. Martinez,75,Class II,M,,212.5,147.5,212.5,572.5,SBD,Single-ply,2
D. Williams,75,Class II,M,,212.5,132.5,225,570,SBD,Single-ply,3
R. Adams,75,Class II,M,,227.5,135,205,567.5,SBD,Single-ply,4
B. Balsand,75,Class II,M,,172.5,125,200,497.5,SBD,Single-ply,5
E. Johnson,75,Class II,M,,175,115,207.5,497.5,SBD,Single-ply,6
B. Harris,75,Class II,M,,,112.5,192.5,,SBD,Single-ply,DQ
K. Lykins,82.5,Class II,M,,262.5,145,250,657.5,SBD,Single-ply,1
J. Yarbrough,82.5,Class II,M,,245,127.5,237.5,610,SBD,Single-ply,2
D. Colasanto,82.5,Class II,M,,230,132.5,230,592.5,SBD,Single-ply,3
L. Gusemano,82.5,Class II,M,,202.5,142.5,242.5,587.5,SBD,Single-ply,4
James Toy,82.5,Class II,M,,217.5,132.5,215,565,SBD,Single-ply,5
D. Stone,82.5,Class II,M,,192.5,130,207.5,530,SBD,Single-ply,6
R. Gaynor,82.5,Class II,M,,180,135,205,520,SBD,Single-ply,7
J. Gaines,82.5,Class II,M,,175,127.5,200,502.5,SBD,Single-ply,8
R. Neals,82.5,Class II,M,,162.5,107.5,212.5,482.5,SBD,Single-ply,9
K. Schmidt,82.5,Class II,M,,172.5,115,172.5,460,SBD,Single-ply,10
Johnny McCoy,90,Class II,M,,265,197.5,265,727.5,SBD,Single-ply,1
D. Mackenzie,90,Class II,M,,242.5,152.5,252.5,647.5,SBD,Single-ply,2
T. Riggs,90,Class II,M,,240,165,240,645,SBD,Single-ply,3
C. Sandau,90,Class II,M,,255,150,235,640,SBD,Single-ply,4
G. Lewis,90,Class II,M,,230,132.5,227.5,590,SBD,Single-ply,5
G. Sharp,90,Class II,M,,205,117.5,207.5,530,SBD,Single-ply,6
K. Wilk,90,Class II,M,,182.5,140,205,527.5,SBD,Single-ply,7
R. Yonez,90,Class II,M,,190,142.5,170,502.5,SBD,Single-ply,8
J. Jewell,90,Class II,M,,200,105,195,500,SBD,Single-ply,9
J. Bailey,100,Class II,M,,260,182.5,230,672.5,SBD,Single-ply,1
W. Cooper,100,Class II,M,,240,142.5,285,667.5,SBD,Single-ply,2
J. Hirt,100,Class II,M,,230,162.5,272.5,665,SBD,Single-ply,3
D. Augilar,100,Class II,M,,245,157.5,257.5,660,SBD,Single-ply,4
D. LeBlanc,100,Class II,M,,267.5,137.5,230,635,SBD,Single-ply,5
S. Krone,100,Class II,M,,232.5,150,245,627.5,SBD,Single-ply,6
W. June,100,Class II,M,,182.5,175,250,607.5,SBD,Single-ply,7
S. Miller,100,Class II,M,,212.5,135,230,577.5,SBD,Single-ply,8
J. Poulsen,100,Class II,M,,202.5,145,192.5,540,SBD,Single-ply,9
D. MacDougal,100,Class II,M,,182.5,117.5,182.5,482.5,SBD,Single-ply,10
P. Toennies,100,Class II,M,,167.5,107.5,180,455,SBD,Single-ply,11
B. Griffin,100,Class II,M,,217.5,,220,,SBD,Single-ply,DQ
T. Smith,110,Class II,M,,287.5,182.5,242.5,712.5,SBD,Single-ply,1
M. McDaniel,110,Class II,M,,270,172.5,265,707.5,SBD,Single-ply,2
G. Boenker,110,Class II,M,,262.5,175,267.5,705,SBD,Single-ply,3
M. Paradise,110,Class II,M,,250,162.5,282.5,695,SBD,Single-ply,4
R. Bueche,110,Class II,M,,255,177.5,237.5,670,SBD,Single-ply,5
Dwight Adkins,110,Class II,M,,237.5,155,265,657.5,SBD,Single-ply,6
D. Ramirez,110,Class II,M,,272.5,177.5,205,655,SBD,Single-ply,7
M. Stanfield,110,Class II,M,,227.5,182.5,240,650,SBD,Single-ply,8
Mike Ashton,125,Class II,M,,292.5,202.5,292.5,787.5,SBD,Single-ply,1
C. Baker,125,Class II,M,,277.5,210,282.5,770,SBD,Single-ply,2
J. Bumpass,125,Class II,M,,250,132.5,272.5,655,SBD,Single-ply,3
M. Carney,125,Class II,M,,250,147.5,250,647.5,SBD,Single-ply,4
J. Coffman,125,Class II,M,42,200,150,165,515,SBD,Single-ply,5
N. Prieto,125+,Class II,M,,272.5,182.5,240,695,SBD,Single-ply,1
A. Banks,125+,Class II,M,,245,182.5,260,687.5,SBD,Single-ply,2
